{
  "project_info": {
    "project_number": "336099007310",
    "firebase_url": "https://integrity-a4d6c.firebaseio.com",
    "project_id": "integrity-a4d6c",
    "storage_bucket": "integrity-a4d6c.appspot.com"
  },
  "client": [
    {
      "client_info": {
        "mobilesdk_app_id": "1:336099007310:android:3faef0ba26b49349",
        "android_client_info": {
          "package_name": "ke.co.riseninnovations.integrity"
        }
      },
      "oauth_client": [
        {
          "client_id": "336099007310-127hofrujkp7168goojgb0v5e41nfgjb.apps.googleusercontent.com",
          "client_type": 3
        }
      ],
      "api_key": [
        {
          "current_key": "AIzaSyBxbRahIxPiDEhzT81szhP5VwRmRfBTHAo"
        }
      ],
      "services": {
        "analytics_service": {
          "status": 1
        },
        "appinvite_service": {
          "status": 1,
          "other_platform_oauth_client": []
        },
        "ads_service": {
          "status": 2
        }
      }
    }
  ],
  "configuration_version": "1"
}